…
``` r
library(readxl)
Cross_Cult_Groups <- read_excel("~/Documents/GitHub/Project-1/Cross-Cult Groups.xls")
View(Cross_Cult_Groups)
```

## Randomizing Part 1

Seeing if the data works and if everything is there.

``` r
head(Cross_Cult_Groups, n=30)
```

    ## # A tibble: 30 × 5
    ##    Name               Hometown                    Class     Major          Minor
    ##    <chr>              <chr>                       <chr>     <chr>          <chr>
    ##  1 Jazmin Aguilar     Winston-Salem, NC           Senior    BEM-Marketing  Engl…
    ##  2 Sarah Binkley      Mooresville, NC             Junior    Psychology     Heal…
    ##  3 Sara Braunshweiger Port Washington, NY         Junior    Biochemistry   Psyc…
    ##  4 Taylor Colony      Lexington, KY               Senior    Psychology     Chem…
    ##  5 Deneaka Duncanson  The Bronx, NY               Junior    Politics & In… Glob…
    ##  6 Keith Elam         Henderson, NC               Junior    Political Sci… <NA> 
    ##  7 Monse Estrada      Chicago, IL                 Sophomore Psychology     Reli…
    ##  8 Stephanie Evanson  Los Altos, CA               Junior    Psychology     Neur…
    ##  9 Abbi Fister        Lexington, KY               Junior    Health & Exer… Neur…
    ## 10 Jacqueline Gillen  Glen Cove, NY (Long Island) Sophomore Psychology     Soci…
    ## # … with 20 more rows
…
